[
    {
        "applicationNumber": "ASDASD1",
        "sponsorName": "XYZ Pharma.",
        "studies": [
            {
                "studyKey": 93,
                "analysisStudyKey": 92,
                "studyID": "DASD",
                "studyName": "QEWFSF",
                "studyType": "SDTM,ADaM",
                "studyTitle": "Test Description",
                "keywords": "SOME MOCK DATA ",
                "studyLoadDate": "2019-07-19"
            },
            {
                "studyKey": 93,
                "analysisStudyKey": 92,
                "studyID": "DASD",
                "studyName": "QEWFSF",
                "studyType": "SDTM,ADaM",
                "studyTitle": "Test Description",
                "keywords": "SOME MOCK DATA ",
                "studyLoadDate": "2019-07-19"
            }
        ]
    },
    {
        "applicationNumber": "ASDASD2",
        "sponsorName": "XYZ Pharma.",
        "studies": [
            {
                "studyKey": 93,
                "analysisStudyKey": 92,
                "studyID": "DASD",
                "studyName": "QEWFSF",
                "studyType": "SDTM,ADaM",
                "studyTitle": "Test Description",
                "keywords": "SOME MOCK DATA ",
                "studyLoadDate": "2019-07-19"
            },
            {
                "studyKey": 93,
                "analysisStudyKey": 92,
                "studyID": "DASD",
                "studyName": "QEWFSF",
                "studyType": "SDTM,ADaM",
                "studyTitle": "Test Description",
                "keywords": "SOME MOCK DATA ",
                "studyLoadDate": "2019-07-19"
            }
        ]
    },
    {
        "applicationNumber": "ASDASD3",
        "sponsorName": "XYZ Pharma.",
        "studies": [
            {
                "studyKey": 93,
                "analysisStudyKey": 92,
                "studyID": "DASD",
                "studyName": "QEWFSF",
                "studyType": "SDTM,ADaM",
                "studyTitle": "Test Description",
                "keywords": "SOME MOCK DATA ",
                "studyLoadDate": "2019-07-19"
            },
            {
                "studyKey": 93,
                "analysisStudyKey": 92,
                "studyID": "DASD",
                "studyName": "QEWFSF",
                "studyType": "SDTM,ADaM",
                "studyTitle": "Test Description",
                "keywords": "SOME MOCK DATA ",
                "studyLoadDate": "2019-07-19"
            }
        ]
    }
]